[  
 "grimstone",
 "hades",
 "fallout",
 "skyrim",
 "warcraft",
 "zelda",
 "link",
 "farpoint",
 "monopoly",
 "roblox",
 "fortnite",
"bioshock",
"bionicle",
"eve",
"fear",
"tekken",
"unreal",
"doom",
"hexen",
"heretic",
"earthbound",
"blitzkrieg",
"killzone",
"agricola",
"alhambra",
"azul",
"cobra",
"banished",
"constantine",
"crysis",
"diablo",
"dune",
"flatout",
"freelancer",
"gothic",
"halo",
"hearthstone",
"hitman",
"homeworld",
"identity",
"outcast",
"outlast",
"overwatch",
"postal",
"quake",
"rage",
"rayman",
"scrolls",
"Battleforge"
]  
  

